{
	"page": 1,
	"total_results": 35,
	"total_pages": 2,
	"results": [{
		"popularity": 16.565,
		"id": 1927,
		"video": false,
		"vote_count": 3549,
		"vote_average": 5.4,
		"title": "Hulk",
		"release_date": "2003-06-19",
		"original_language": "en",
		"original_title": "Hulk",
		"genre_ids": [28, 878],
		"backdrop_path": "\/kVxquPLBzAIq2NmlbWjTsfZBFh5.jpg",
		"adult": false,
		"overview": "Bruce Banner, vědec každým coulem, má všechny důvody ke zlosti na své nadřízené. Jeho převratná vědecká práce, která by mohla změnit pohled na možnosti genetické technologie, je zapomenutou a pro jejího autora stále bolestivou minulostí. Jen Betty Rossová, skvělá spolupracovnice a někdejší Bruceova přítelkyně, se snaží uchránit ho před dalšími střety a konflikty. Stala se totiž svědkem neúspěšného pokusu, kdy byl Bruce, ve snaze zabránit explozi a zachránit si holý život, vystaven smrtelné dávce záření gama. Zdánlivě se nic nestalo, ale jednoho dne opustil svou laboratoř jako obrovské monstrum. Čtyřmetrový zelený svalovec, známý jako Hulk, zanechává za sebou jen trosky. Armáda je uvedena do stavu nejvyšší pohotovosti. Betty tuší souvislosti, ale ve svém boji o záchranu zeleného giganta i blízkého člověka je téměř osamělá.",
		"poster_path": "\/ogCQV6mnLtCJuiiHtMB83jvSRfY.jpg"
	}, {
		"popularity": 21.291,
		"id": 1724,
		"video": false,
		"vote_count": 7098,
		"vote_average": 6.2,
		"title": "Neuvěřitelný Hulk",
		"release_date": "2008-06-12",
		"original_language": "en",
		"original_title": "The Incredible Hulk",
		"genre_ids": [878, 28, 12],
		"backdrop_path": "\/cVpBJxRBIwTjajKQ08TE6BINTEu.jpg",
		"adult": false,
		"overview": "Před pěti lety prováděl jaderný fyzik Bruce Banner společně se svou přítelkyní a kolegyní Betty Rossovou výzkum pro americkou armádu. Její otec, generál Ross, jim řekl, že jde o experiment, jehož výsledkem bude odolnost člověka vůči záření gama. Bruce si byl výsledky svého výzkumu tak jistý, že sérum aplikoval sám sobě. Látka však zapříčinila, že se změnil v obrovské zelené monstrum, zničil laboratoř a zranil několik lidí. Po návratu do lidské podoby uprchl a generál Ross po něm začal všemi možnými prostředky pátrat. V současnosti se Bruce ukrývá v Brazílii. V Hulka se změní vždy, když jeho srdeční tep překročí hranici 200 úderů, proto se snaží rozvíjet sebeovládání. Zatímco se Bruce snaží vyléčit svůj stav, na obzoru se objeví nepřítel s podobnými schopnostmi, který naopak nevynechá jedinou příležitost k tomu, aby se z člověka přeměnil v monstrum Abomination.",
		"poster_path": "\/gCQ4e8klADtzoa6bL7XLPnjiUIg.jpg"
	}, {
		"popularity": 0.624,
		"id": 586842,
		"video": true,
		"vote_count": 1,
		"vote_average": 10,
		"title": "WWE: Hollywood Hulk Hogan - Hulk Still Rules",
		"release_date": "2002-08-19",
		"original_language": "en",
		"original_title": "WWE: Hollywood Hulk Hogan - Hulk Still Rules",
		"genre_ids": [99],
		"backdrop_path": "\/7yM1nQruAs4TDvyNgkykrVWgTXi.jpg",
		"adult": false,
		"overview": "",
		"poster_path": "\/l0aV3gETwxuF6O6qnM7DxICPPs5.jpg"
	}]
}
